<svg xmlns="http://www.w3.org/2000/svg" xmlns:xlink="http://www.w3.org/1999/xlink" width="358" height="48" viewBox="0 0 358 48">
    <defs>
        <path id="a" d="M7.268 8H.098V.75h7.17z"/>
    </defs>
    <g fill="none" fill-rule="evenodd">
        <path fill="#FFF" d="M9.607 6.095L6.14 15.003h6.865l-3.4-8.908zm2.96 16.21c-.066 0-.066-.585 0-.585h2.794c.1 0 .168-.059.134-.059l-2.288-6.074H5.905l-1.951 4.906c-.37 1.052-.404 1.227-.27 1.227H6.41c.1 0 .1.584 0 .584H.05c-.067 0-.067-.584 0-.584h2.524c.303 0 .37-.087.774-1.227L10.953 1.19c.034-.088.639-.088.673 0l8.412 20.472s.1.06.236.06H23.1c.068 0 .068.583 0 .583H12.568zM41.874 22.304c-.068 0-.068-.584 0-.584h2.793c.101 0 .168-.029.168-.117V3.437L37.77 22.684c-.034.087-.572.087-.606 0L29.121 3.116v18.487c0 .088.033.117.168.117h2.86c.034 0 .034.584 0 .584h-6.696c-.067 0-.067-.584 0-.584h2.827c.134 0 .134-.029.134-.117V2.298c0-.087 0-.117-.134-.117h-2.827c-.067 0-.067-.584 0-.584h7.134c.202 0 .336.176.505.526l6.056 14.72 5.418-14.72c.101-.32.336-.526.471-.526h7.033c.033 0 .033.584 0 .584h-2.827c-.1 0-.168.03-.168.117v19.305c0 .088.067.117.168.117h2.827c.033 0 .033.584 0 .584H41.874zM74.813 22.304H56.407c-.067 0-.067-.584 0-.584h2.826c.101 0 .168-.029.168-.117V2.298c0-.087-.067-.117-.168-.117h-2.826c-.067 0-.067-.584 0-.584h16.757c.135 0 .135.06.135.088v5.958c0 .03-.64.03-.64 0 0-2.716-1.648-5.462-5.653-5.462h-3.129c-.202 0-.269.03-.269.117v9.083h.841c2.557 0 3.97-1.635 3.97-3.65 0-.059.572-.059.572 0v7.885c0 .087-.572.087-.572 0 0-1.986-1.413-3.65-3.97-3.65h-.84v9.637c0 .088.066.117.268.117h3.23c5.25 0 7.235-3.037 7.235-6.045 0-.059.572-.059.572 0v6.542c0 .058-.034.087-.1.087M88.405 2.182h-1.648c-.17 0-.236.029-.236.117v8.937h2.187c3.13 0 3.836-.73 3.836-4.44 0-3.65-1.144-4.614-4.14-4.614M98.837 22.8c-2.624 0-5.383-1.49-5.383-5.665v-1.9c0-2.57-1.851-3.416-4.745-3.416H86.52v9.784c0 .087.067.117.236.117h2.859c.034 0 .034.584 0 .584h-10.33c-.067 0-.067-.584 0-.584h2.86c.068 0 .135-.03.135-.117V2.299c0-.088-.067-.117-.135-.117h-2.86c-.067 0-.067-.584 0-.584h9.893c4.745 0 7.639 2.22 7.639 5.082 0 2.716-2.827 4.848-6.125 4.848 4.846 0 7.1 2.599 7.1 5.666v2.628c0 1.49.74 2.132 1.918 2.132.84 0 1.212-.146 1.649-.584.068-.03.47.38.404.409-.64.613-1.548 1.022-2.928 1.022M103.545 22.304c-.034 0-.034-.584 0-.584h2.826c.1 0 .169-.029.169-.117V2.298c0-.087-.068-.117-.17-.117h-2.825c-.034 0-.034-.584 0-.584h10.263c.067 0 .067.584 0 .584h-2.826c-.135 0-.203.03-.203.117v19.305c0 .088.068.117.203.117h2.826c.067 0 .067.584 0 .584h-10.263zM133.794 22.743c-.067-.351-.538-.876-1.447-.876-1.447 0-3.768.934-5.552.934-6.057 0-10.532-5.052-10.532-10.835 0-5.812 4.34-10.865 10.364-10.865 1.548 0 3.5.789 4.98.789.909 0 1.548-.38 1.615-.701 0-.058.572-.058.572 0v6.776c0 .058-.572.058-.572 0 0-2.891-3.432-6.28-6.595-6.28-1.447 0-2.591.264-3.567 1.08-1.514 1.345-2.221 4.265-2.221 9.2 0 4.966.707 7.828 2.22 9.2.977.848 2.289 1.08 3.736 1.08 3.836 0 6.999-3.27 6.999-7.096 0-.058.64-.058.64 0v7.594c0 .029-.606.029-.64 0M147.116 6.095l-3.466 8.908h6.865l-3.399-8.908zm2.961 16.21c-.067 0-.067-.585 0-.585h2.793c.101 0 .168-.059.135-.059l-2.288-6.074h-7.302l-1.952 4.906c-.37 1.052-.404 1.227-.269 1.227h2.725c.101 0 .101.584 0 .584h-6.359c-.068 0-.068-.584 0-.584h2.523c.303 0 .37-.087.774-1.227l7.605-19.304c.034-.088.64-.088.673 0l8.413 20.472s.1.06.235.06h2.827c.067 0 .067.583 0 .583h-10.533zM181.874 2.182c-.135 0-.202.029-.202.117v20.385c0 .088-.538.117-.64 0L166.631 2.59v19.013c0 .087.034.117.167.117h2.827c.067 0 .067.584 0 .584h-6.661c-.101 0-.101-.584 0-.584h2.792c.168 0 .168-.03.168-.117V2.299c0-.088 0-.117-.168-.117h-2.792c-.101 0-.101-.584 0-.584h7.536c.236 0 .405.117.708.526l9.858 13.902V2.299c0-.088-.067-.117-.202-.117h-2.793c-.135 0-.135-.584 0-.584h6.63c.032 0 .032.584 0 .584h-2.827zM234.328 2.182c-.202 0-.404.117-.774 1.227l-7.167 19.334c-.034.058-.64.058-.673 0l-6.023-15.246-5.654 15.246c-.1.117-.605.087-.672 0l-8.749-20.444c0-.058-.135-.117-.269-.117h-2.995c-.067 0-.067-.584 0-.584h10.666c.102 0 .102.584 0 .584h-2.69c-.136 0-.17.029-.136.117l6.292 14.983 3.837-10.573-1.717-4.41c-.033-.058-.235-.117-.235-.117h-2.995c-.067 0-.067-.584 0-.584h10.97c.033 0 .033.584 0 .584h-3.197c-.134 0-.168.059-.168.117l5.855 15.01 5.115-14.046c.37-.964.37-1.081.134-1.081h-2.759c-.067 0-.067-.584 0-.584h6.73c.066 0 .066.584 0 .584h-2.726zM253.336 2.766c-.942-.817-2.154-1.081-3.566-1.081-1.447 0-2.592.264-3.534 1.08-1.547 1.345-2.22 4.265-2.22 9.2 0 5.667.673 7.828 2.22 9.2.942.848 2.087 1.08 3.534 1.08 1.412 0 2.624-.232 3.566-1.08 1.514-1.372 2.221-3.533 2.221-9.2 0-4.935-.707-7.855-2.22-9.2m-3.567 20.036c-5.72 0-10.365-4.848-10.365-10.835 0-5.812 4.341-10.865 10.365-10.865 5.754 0 10.363 4.849 10.363 10.865 0 5.987-4.609 10.835-10.363 10.835M279.613 2.766c-.94-.817-2.153-1.081-3.566-1.081-1.447 0-2.592.264-3.534 1.08-1.547 1.345-2.22 4.265-2.22 9.2 0 5.667.673 7.828 2.22 9.2.942.848 2.087 1.08 3.534 1.08 1.413 0 2.625-.232 3.566-1.08 1.515-1.372 2.221-3.533 2.221-9.2 0-4.935-.706-7.855-2.22-9.2m-3.567 20.036c-5.72 0-10.364-4.848-10.364-10.835 0-5.812 4.341-10.865 10.364-10.865 5.754 0 10.363 4.849 10.363 10.865 0 5.987-4.609 10.835-10.363 10.835M309.222 22.304H291.59c-.034 0-.034-.584 0-.584h2.86c.067 0 .134-.029.134-.117V2.298c0-.087-.067-.117-.134-.117h-2.86c-.034 0-.034-.584 0-.584h10.262c.068 0 .068.584 0 .584h-2.792c-.135 0-.202.03-.202.117v19.305c0 .088.067.117.202.117h2.725c4.846 0 6.898-3.33 6.898-6.308 0-.03.64-.03.64 0v6.805c0 .058-.034.087-.1.087M331.9 22.304h-18.407c-.068 0-.068-.584 0-.584h2.826c.101 0 .168-.029.168-.117V2.298c0-.087-.067-.117-.168-.117h-2.826c-.068 0-.068-.584 0-.584h16.757c.134 0 .134.06.134.088v5.958c0 .03-.639.03-.639 0 0-2.716-1.649-5.462-5.653-5.462h-3.129c-.202 0-.27.03-.27.117v9.083h.842c2.557 0 3.971-1.635 3.971-3.65 0-.059.572-.059.572 0v7.885c0 .087-.572.087-.572 0 0-1.986-1.414-3.65-3.97-3.65h-.843v9.637c0 .088.068.117.27.117h3.23c5.25 0 7.235-3.037 7.235-6.045 0-.059.572-.059.572 0v6.542c0 .058-.034.087-.1.087M355.148 2.182c-.134 0-.202.029-.202.117v20.385c0 .088-.538.117-.64 0L339.906 2.59v19.013c0 .087.034.117.168.117h2.827c.067 0 .067.584 0 .584h-6.662c-.102 0-.102-.584 0-.584h2.792c.169 0 .169-.03.169-.117V2.299c0-.088 0-.117-.17-.117h-2.791c-.102 0-.102-.584 0-.584h7.537c.235 0 .404.117.706.526l9.86 13.902V2.299c0-.088-.068-.117-.202-.117h-2.793c-.135 0-.135-.584 0-.584h6.629c.033 0 .033.584 0 .584h-2.827zM126.14 42.446c-.383-.52-.923-.804-1.639-.804-.559 0-1.079.216-1.472.618a2.28 2.28 0 0 0-.647 1.58c0 1.304.961 2.255 2.12 2.255.685 0 1.245-.264 1.588-.745h1.668c-.648 1.422-1.737 2.138-3.248 2.138-1.039 0-1.932-.402-2.638-1.196-.588-.658-.902-1.51-.902-2.472 0-.972.372-1.854 1.088-2.57a3.417 3.417 0 0 1 2.463-1.01c1.53 0 2.6.725 3.285 2.206h-1.667z"/>
        <g transform="translate(140 39.489)">
            <mask id="b" fill="#fff">
                <use xlink:href="#a"/>
            </mask>
            <path fill="#FFF" d="M2.118 5.861c.431.471 1 .726 1.57.726 1.186 0 2.157-.942 2.157-2.276a2.143 2.143 0 0 0-2.129-2.148c-1.226 0-2.187.961-2.187 2.148 0 .6.196 1.118.59 1.55M.704 2.321C1.391 1.318 2.471.75 3.707.75A3.54 3.54 0 0 1 6.2 1.79a3.56 3.56 0 0 1 1.07 2.54c0 1-.355 1.893-1.012 2.57a3.548 3.548 0 0 1-2.569 1.1c-1.03 0-1.914-.364-2.6-1.1-.648-.686-.99-1.56-.99-2.54 0-.776.205-1.453.607-2.04" mask="url(#b)"/>
        </g>
        <path fill="#FFF" d="M159.89 47.352v-6.975h1.806l1.776 5.072 1.766-5.072h1.805v6.975h-1.344l.048-5.062-1.765 5.062h-1.03l-1.766-5.062.059 5.062zM181.696 43.496c.775 0 1.177-.353 1.177-.952 0-.637-.392-.94-1.186-.94h-.354v1.892h.363zm-1.727 3.855v-6.975h1.737c.755 0 1.295.06 1.657.305.57.382.923 1.06.923 1.795 0 1.295-.903 2.197-2.443 2.197h-.51v2.678h-1.364zM198.697 42.349l-.844 2.247h1.668l-.824-2.247zm-1.854 5.003h-1.413l2.708-6.975h1.177l2.668 6.975h-1.46l-.55-1.461h-2.59l-.54 1.46zM214.048 47.352v-6.975h1.294l2.885 4.454v-4.454h1.334v6.975h-1.266l-2.904-4.591v4.59zM235 47.352h-1.364V44.84l-2-4.464h1.5l1.207 3.002 1.197-3.002h1.49L235 44.84z"/>
    </g>
</svg>
